<svg xmlns="http://www.w3.org/2000/svg" xmlns:xlink="http://www.w3.org/1999/xlink" width="80" height="80" viewBox="0 0 80 80">
  <defs>
    <clipPath id="clip-path">
      <rect id="Retângulo_2570" data-name="Retângulo 2570" width="80" height="80" transform="translate(1263 847)" fill="#fff"/>
    </clipPath>
  </defs>
  <g id="Vantagens" transform="translate(-1263 -847)" clip-path="url(#clip-path)">
    <g id="compare" transform="translate(1261.71 845.832)">
      <path id="Caminho_8250" data-name="Caminho 8250" d="M74.839,1.168H7.742A6.459,6.459,0,0,0,1.29,7.619V56.652A6.459,6.459,0,0,0,7.742,63.1H28.387v7.742H25.806a5.166,5.166,0,0,0-5.161,5.161v3.871a1.291,1.291,0,0,0,1.29,1.29h38.71a1.291,1.291,0,0,0,1.29-1.29V76.006a5.166,5.166,0,0,0-5.161-5.161H54.194V63.1H74.839a6.459,6.459,0,0,0,6.452-6.452V7.619a6.459,6.459,0,0,0-6.452-6.452ZM7.742,3.748h67.1A3.876,3.876,0,0,1,78.71,7.619v40H3.871v-40A3.876,3.876,0,0,1,7.742,3.748ZM59.355,76.006v2.581H23.226V76.006a2.583,2.583,0,0,1,2.581-2.581H56.774A2.583,2.583,0,0,1,59.355,76.006Zm-7.742-5.161H30.968V63.1H51.613ZM74.839,60.523H7.742a3.876,3.876,0,0,1-3.871-3.871V50.2H78.71v6.452A3.875,3.875,0,0,1,74.839,60.523Z" fill="#fff"/>
      <path id="Caminho_8251" data-name="Caminho 8251" d="M11.613,23.51V43.748a1.291,1.291,0,0,0,1.29,1.29H38.71A1.291,1.291,0,0,0,40,43.748V12.781a1.291,1.291,0,0,0-1.29-1.29H23.632A9.025,9.025,0,1,0,11.613,23.51Zm25.806-9.439V42.458H14.194V24.29a8.116,8.116,0,0,0,2.581,0v3.974a1.291,1.291,0,0,0,1.29,1.29H33.548a1.291,1.291,0,0,0,1.29-1.29V17.942a1.291,1.291,0,0,0-1.29-1.29H24.413a8.116,8.116,0,0,0,0-2.581ZM23.632,19.232h8.626v7.742h-12.9V23.51A9.072,9.072,0,0,0,23.632,19.232ZM15.484,8.91a6.452,6.452,0,1,1-6.452,6.452A6.459,6.459,0,0,1,15.484,8.91Z" fill="#fff"/>
      <path id="Caminho_8252" data-name="Caminho 8252" d="M14.194,19.232a1.287,1.287,0,0,0,.912-.378l5.161-5.161-1.825-1.825-4.249,4.249-1.668-1.668L10.7,16.274l2.581,2.581a1.281,1.281,0,0,0,.912.378Z" fill="#fff"/>
      <path id="Caminho_8253" data-name="Caminho 8253" d="M47.742,23.51V43.748a1.291,1.291,0,0,0,1.29,1.29H74.839a1.291,1.291,0,0,0,1.29-1.29V12.781a1.291,1.291,0,0,0-1.29-1.29H59.761A9.025,9.025,0,1,0,47.742,23.51Zm25.806-9.439V42.458H50.323V24.29a8.116,8.116,0,0,0,2.581,0v3.974a1.291,1.291,0,0,0,1.29,1.29H69.677a1.291,1.291,0,0,0,1.29-1.29V17.942a1.291,1.291,0,0,0-1.29-1.29H60.542a8.116,8.116,0,0,0,0-2.581ZM59.761,19.232h8.626v7.742h-12.9V23.51A9.072,9.072,0,0,0,59.761,19.232ZM51.613,8.91a6.452,6.452,0,1,1-6.452,6.452A6.459,6.459,0,0,1,51.613,8.91Z" fill="#fff"/>
      <path id="Caminho_8254" data-name="Caminho 8254" d="M49.945,18.854l1.668-1.668,1.668,1.668,1.825-1.825-1.668-1.668,1.668-1.668-1.825-1.825-1.668,1.668-1.668-1.668L48.12,13.693l1.668,1.668L48.12,17.03Z" fill="#fff"/>
      <path id="Caminho_8255" data-name="Caminho 8255" d="M16.774,32.135H34.839v2.581H16.774Z" fill="#fff"/>
      <path id="Caminho_8256" data-name="Caminho 8256" d="M16.774,37.3H34.839v2.581H16.774Z" fill="#fff"/>
      <path id="Caminho_8257" data-name="Caminho 8257" d="M52.9,32.135H70.968v2.581H52.9Z" fill="#fff"/>
      <path id="Caminho_8258" data-name="Caminho 8258" d="M52.9,37.3H70.968v2.581H52.9Z" fill="#fff"/>
      <path id="Caminho_8259" data-name="Caminho 8259" d="M73.548,55.361h2.581v2.581H73.548Z" fill="#fff"/>
      <path id="Caminho_8260" data-name="Caminho 8260" d="M68.387,55.361h2.581v2.581H68.387Z" fill="#fff"/>
    </g>
  </g>
</svg>
