<svg xmlns="http://www.w3.org/2000/svg" xmlns:xlink="http://www.w3.org/1999/xlink" width="80" height="80" viewBox="0 0 80 80">
  <defs>
    <clipPath id="clip-path">
      <rect id="Retângulo_2569" data-name="Retângulo 2569" width="80" height="80" transform="translate(909 847)" fill="#fff"/>
    </clipPath>
  </defs>
  <g id="Ingredientes" transform="translate(-909 -847)" clip-path="url(#clip-path)">
    <g id="healthy-food" transform="translate(909 852.922)">
      <path id="Caminho_8227" data-name="Caminho 8227" d="M78.455,53.454l-3.069.647,1.777-2.59L74.962,50l-2.124,3.1a9.9,9.9,0,0,0-1.5-2.237l1.6-3.574a35.617,35.617,0,0,0,3.12-14.5,21.289,21.289,0,0,0-2.247-9.507,17.843,17.843,0,0,0-27.03-6.043,21.274,21.274,0,0,1,6.2-13.568L51.1,1.78a24.109,24.109,0,0,0-4.7,6.671A13.355,13.355,0,0,0,34.031.055,1.334,1.334,0,0,0,32.7,1.389,13.357,13.357,0,0,0,44.428,14.625a24.19,24.19,0,0,0-.313,2.722l-.051-.041A17.894,17.894,0,0,0,28.2,14.028,15.947,15.947,0,0,0,13.35,4.058H6.679A1.334,1.334,0,0,0,5.344,5.392v6.671A15.9,15.9,0,0,0,12.207,25.21c-4.222,1.721-7.253,5.919-8.821,12.276a39.531,39.531,0,0,0-.266,17.1,17.163,17.163,0,0,0,1.888,4.739l-1.587.323A4.27,4.27,0,0,0,4.277,68.1H63.163A9.854,9.854,0,0,0,70.181,65.2l.75-.75a9.861,9.861,0,0,0,2.717-5.071l2.774,2.965,1.948-1.826-3.379-3.6L79,56.068Zm-43-50.636a10.7,10.7,0,0,1,9.15,9.15,10.7,10.7,0,0,1-9.15-9.15Zm6.939,16.57,2.148,1.721a1.334,1.334,0,0,0,1.668,0l2.145-1.72a15.177,15.177,0,0,1,23.074,5.081,18.609,18.609,0,0,1,1.964,8.314A32.929,32.929,0,0,1,70.507,46.2l-1.283,2.862a9.852,9.852,0,0,0-7.295-1.352l-24.695,5.04a17.077,17.077,0,0,0-.331-6.069,39.6,39.6,0,0,0-7.819-15.211c-3.142-3.721-6.484-6-9.862-6.8.033-.066.064-.134.1-.2a15.088,15.088,0,0,1,13.592-8.4,15.249,15.249,0,0,1,9.48,3.323ZM8.013,12.063V6.726H13.35a13.289,13.289,0,0,1,12.315,8.186,17.654,17.654,0,0,0-4.609,2.972l-2.37-2.37V9.395H16.019v3.45L11.625,8.451,9.738,10.338l4.394,4.394h-3.45V17.4H16.8l2.4,2.4a17.949,17.949,0,0,0-2.268,3.469c-.174.341-.341.708-.506,1.093H16.2a13.246,13.246,0,0,1-8.191-12.3ZM5.723,53.976A36.6,36.6,0,0,1,5.975,38.12c1.06-4.291,3.407-9.661,8.573-10.866s9.647,2.557,12.5,5.932a36.668,36.668,0,0,1,7.26,14.1,14.435,14.435,0,0,1,.112,6.034l-2.858.583a12.01,12.01,0,1,0-20.88,4.261l-2.869.586a14.5,14.5,0,0,1-2.09-4.776Zm8.046,3.559a9.141,9.141,0,0,1-2.842-4.773A9.34,9.34,0,1,1,28.5,54.528Zm55.274,5.025-.749.75a7.205,7.205,0,0,1-5.131,2.125H4.277a1.6,1.6,0,0,1-.32-3.175l17.871-3.646a10.267,10.267,0,0,1-.534,2.37l2.512.9a12.874,12.874,0,0,0,.751-3.825l6.524-1.334a10.394,10.394,0,0,1-.583,3.109l2.514.9a13.112,13.112,0,0,0,.746-4.555l6.526-1.334a10.469,10.469,0,0,1-.593,3.841l2.514.9a13.171,13.171,0,0,0,.709-5.275l6.513-1.334a10.447,10.447,0,0,1-.543,4.559l2.514.9a13.083,13.083,0,0,0,.641-5.989l7.673-1.566a10.579,10.579,0,0,1-.294,3.618L59.285,55l2.581.676L62,55.165a13.224,13.224,0,0,0,.332-4.829l.134-.028a7.255,7.255,0,0,1,6.579,12.239Zm0,0" fill="#fff"/>
      <path id="Caminho_8228" data-name="Caminho 8228" d="M76.553,22.811a23.47,23.47,0,0,1,.911,2.3L80,24.261a26.532,26.532,0,0,0-1.014-2.56Zm0,0" fill="#fff"/>
      <path id="Caminho_8229" data-name="Caminho 8229" d="M57.841,8.06q-.964,0-1.919.081l.225,2.658c.564-.047,1.126-.071,1.693-.071a20.369,20.369,0,0,1,17.419,9.658l2.269-1.409A23.025,23.025,0,0,0,57.841,8.06Zm0,0" fill="#fff"/>
    </g>
  </g>
</svg>
