<svg xmlns="http://www.w3.org/2000/svg" xmlns:xlink="http://www.w3.org/1999/xlink" width="80" height="80" viewBox="0 0 80 80">
  <defs>
    <clipPath id="clip-path">
      <rect id="Retângulo_2570" data-name="Retângulo 2570" width="80" height="80" transform="translate(1263 847)" fill="#fff"/>
    </clipPath>
  </defs>
  <g id="Vantagens_02" data-name="Vantagens 02" transform="translate(-1263 -847)" clip-path="url(#clip-path)">
    <g id="like" transform="translate(1263 847)">
      <g id="Grupo_1790" data-name="Grupo 1790">
        <g id="Grupo_1789" data-name="Grupo 1789">
          <path id="Caminho_8268" data-name="Caminho 8268" d="M27.731,51.689a1.561,1.561,0,1,0,.458,1.1A1.572,1.572,0,0,0,27.731,51.689Z" fill="#fff"/>
        </g>
      </g>
      <g id="Grupo_1792" data-name="Grupo 1792">
        <g id="Grupo_1791" data-name="Grupo 1791">
          <path id="Caminho_8269" data-name="Caminho 8269" d="M80,53.11a6.638,6.638,0,0,0-5.175-6.466,6.624,6.624,0,0,0-5.518-10.294H51.919L54.193,29.6a10.543,10.543,0,0,0-6.925-13.453l-2.741-.833a1.562,1.562,0,0,0-1.924.963L38.3,28.181a14.679,14.679,0,0,1-6.789,7.9l-4.3,2.343a5.076,5.076,0,0,0-4.095-2.078H1.563A1.563,1.563,0,0,0,0,37.914V78.437A1.563,1.563,0,0,0,1.563,80H23.109A5.082,5.082,0,0,0,27.5,77.477l2.205.865A23.926,23.926,0,0,0,38.471,80h27.3a6.625,6.625,0,0,0,5.5-10.319A6.622,6.622,0,0,0,75.17,59.488,6.638,6.638,0,0,0,80,53.11Zm-6.628,3.5H57.3a1.563,1.563,0,1,0,0,3.125h12.41a3.5,3.5,0,0,1,0,7.006H57.3a1.563,1.563,0,0,0,0,3.125h8.473a3.5,3.5,0,0,1,0,7.006h-27.3a20.814,20.814,0,0,1-7.629-1.442l-2.653-1.04V59.063a1.563,1.563,0,0,0-3.125,0V74.919a1.957,1.957,0,0,1-1.955,1.955H3.125v-37.4H23.109a1.957,1.957,0,0,1,1.955,1.955v5.305a1.563,1.563,0,0,0,3.125,0V41.45L33,38.83a17.8,17.8,0,0,0,8.233-9.585l3.8-10.511,1.322.4A7.418,7.418,0,0,1,51.232,28.6l-2.969,8.814a1.562,1.562,0,0,0,1.481,2.061H69.306a3.5,3.5,0,1,1,0,7.006H57.3a1.563,1.563,0,1,0,0,3.125H73.372a3.5,3.5,0,0,1,0,7.006Z" fill="#fff"/>
        </g>
      </g>
      <g id="Grupo_1794" data-name="Grupo 1794">
        <g id="Grupo_1793" data-name="Grupo 1793">
          <path id="Caminho_8270" data-name="Caminho 8270" d="M17.058,64.927A4.377,4.377,0,1,0,21.435,69.3,4.382,4.382,0,0,0,17.058,64.927Zm0,5.628A1.252,1.252,0,1,1,18.31,69.3,1.253,1.253,0,0,1,17.058,70.555Z" fill="#fff"/>
        </g>
      </g>
      <g id="Grupo_1796" data-name="Grupo 1796">
        <g id="Grupo_1795" data-name="Grupo 1795">
          <path id="Caminho_8271" data-name="Caminho 8271" d="M47.8.458a1.563,1.563,0,0,0-2.667,1.1A1.563,1.563,0,1,0,47.8.458Z" fill="#fff"/>
        </g>
      </g>
      <g id="Grupo_1798" data-name="Grupo 1798">
        <g id="Grupo_1797" data-name="Grupo 1797">
          <path id="Caminho_8272" data-name="Caminho 8272" d="M46.691,5.833A1.563,1.563,0,0,0,45.128,7.4v3.8a1.563,1.563,0,1,0,3.125,0V7.4A1.563,1.563,0,0,0,46.691,5.833Z" fill="#fff"/>
        </g>
      </g>
      <g id="Grupo_1800" data-name="Grupo 1800">
        <g id="Grupo_1799" data-name="Grupo 1799">
          <path id="Caminho_8273" data-name="Caminho 8273" d="M67.2,20.51H57.561a1.562,1.562,0,0,0,0,3.125H67.2a1.563,1.563,0,1,0,0-3.125Z" fill="#fff"/>
        </g>
      </g>
      <g id="Grupo_1802" data-name="Grupo 1802">
        <g id="Grupo_1801" data-name="Grupo 1801">
          <path id="Caminho_8274" data-name="Caminho 8274" d="M35.816,20.506H26.18a1.563,1.563,0,0,0,0,3.125h9.635a1.563,1.563,0,0,0,0-3.125Z" fill="#fff"/>
        </g>
      </g>
      <g id="Grupo_1804" data-name="Grupo 1804">
        <g id="Grupo_1803" data-name="Grupo 1803">
          <path id="Caminho_8275" data-name="Caminho 8275" d="M38.961,12.13,34.412,7.581a1.563,1.563,0,0,0-2.21,2.21l4.549,4.549a1.563,1.563,0,0,0,2.21-2.21Z" fill="#fff"/>
        </g>
      </g>
      <g id="Grupo_1806" data-name="Grupo 1806">
        <g id="Grupo_1805" data-name="Grupo 1805">
          <path id="Caminho_8276" data-name="Caminho 8276" d="M61.178,7.584a1.563,1.563,0,0,0-2.21,0l-4.549,4.549a1.563,1.563,0,0,0,2.21,2.21l4.549-4.549A1.563,1.563,0,0,0,61.178,7.584Z" fill="#fff"/>
        </g>
      </g>
    </g>
  </g>
</svg>
